%YAML 1.1
%TAG !u! tag:unity3d.com,2011:
--- !u!114 &11400000
MonoBehaviour:
  m_ObjectHideFlags: 0
  m_CorrespondingSourceObject: {fileID: 0}
  m_PrefabInstance: {fileID: 0}
  m_PrefabAsset: {fileID: 0}
  m_GameObject: {fileID: 0}
  m_Enabled: 1
  m_EditorHideFlags: 0
  m_Script: {fileID: 11500000, guid: 6d597589ac89e60468c2281e9464919e, type: 3}
  m_Name: 6_Beach_0
  m_EditorClassIdentifier: 
  Enemies:
  - enemyPos: {x: -3.52, y: -8.98, z: 0}
    enemy: {fileID: 181377812364850551, guid: d6a4f1a500be5d44988b4de96e8fe612, type: 3}
  - enemyPos: {x: 1.5200005, y: -12.09, z: 0}
    enemy: {fileID: 5636289422871553636, guid: 59fc1a8d634d29242a606f52d460d2c5, type: 3}
