%YAML 1.1
%TAG !u! tag:unity3d.com,2011:
--- !u!114 &11400000
MonoBehaviour:
  m_ObjectHideFlags: 0
  m_CorrespondingSourceObject: {fileID: 0}
  m_PrefabInstance: {fileID: 0}
  m_PrefabAsset: {fileID: 0}
  m_GameObject: {fileID: 0}
  m_Enabled: 1
  m_EditorHideFlags: 0
  m_Script: {fileID: 11500000, guid: 6d597589ac89e60468c2281e9464919e, type: 3}
  m_Name: 8_Beach_2
  m_EditorClassIdentifier: 
  Enemies:
  - enemyPos: {x: -4.44, y: -16.59, z: 0}
    enemy: {fileID: 5636289422871553636, guid: 59fc1a8d634d29242a606f52d460d2c5, type: 3}
  - enemyPos: {x: 0.91, y: -19.539999, z: 0}
    enemy: {fileID: 5636289422871553636, guid: 59fc1a8d634d29242a606f52d460d2c5, type: 3}
