%YAML 1.1
%TAG !u! tag:unity3d.com,2011:
--- !u!114 &11400000
MonoBehaviour:
  m_ObjectHideFlags: 0
  m_CorrespondingSourceObject: {fileID: 0}
  m_PrefabInstance: {fileID: 0}
  m_PrefabAsset: {fileID: 0}
  m_GameObject: {fileID: 0}
  m_Enabled: 1
  m_EditorHideFlags: 0
  m_Script: {fileID: 11500000, guid: b0adea6f160480546b84b0eb63243255, type: 3}
  m_Name: 4_CactusSmoothie
  m_EditorClassIdentifier: 
  _foodID: 4
  _foodName: Cactus Smoothie
  _foodDescription: Hey, it's actually sweeter than I thou- is that a needle in my
    teeth?
  hunger: 8
  EffectList: []
